testfiles/1onc_cliqs/1_1onc_native_r5_r1_r1_r12_r12_r2_r6_r8.cliq.gpdb
testfiles/1onc_cliqs/2_1onc_native_r1_r1_r12_r2_r2_r5_r6_r8.cliq.gpdb
testfiles/1onc_cliqs/3_1onc_native_r2_r1_r1_r12_r5_r6_r7_r8.cliq.gpdb
testfiles/1onc_cliqs/4_1onc_native_r6_r1_r1_r12_r2_r2_r5_r7.cliq.gpdb
testfiles/1onc_cliqs/5_1onc_native_r1_r1_r1_r16_r2_r2_r2_r2.cliq.gpdb
testfiles/1onc_cliqs/6_1onc_native_r2_r1_r1_r1_r16_r2_r2_r8.cliq.gpdb
testfiles/1onc_cliqs/7_1onc_native_r16_r1_r2_r2_r2_r2_r2_r9.cliq.gpdb
testfiles/1onc_cliqs/8_1onc_native_r1_r1_r1_r12_r12_r2_r7_r8.cliq.gpdb
testfiles/1onc_cliqs/9_1onc_native_r2_r1_r1_r12_r6_r7_r8_r8.cliq.gpdb
testfiles/1onc_cliqs/10_1onc_native_r12_r1_r1_r2_r2_r2_r8_r8.cliq.gpdb
testfiles/1onc_cliqs/11_1onc_native_r8_r1_r1_r12_r2_r2_r8_r9.cliq.gpdb
testfiles/1onc_cliqs/12_1onc_native_r8_r1_r12_r2_r2_r2_r5_r8.cliq.gpdb
testfiles/1onc_cliqs/13_1onc_native_r1_r1_r1_r12_r2_r2_r7_r8.cliq.gpdb
testfiles/1onc_cliqs/14_1onc_native_r12_r1_r1_r1_r5_r6_r7_r8.cliq.gpdb
testfiles/1onc_cliqs/15_1onc_native_r8_r1_r12_r2_r2_r2_r5_r7.cliq.gpdb
testfiles/1onc_cliqs/16_1onc_native_r7_r1_r1_r12_r2_r5_r6_r8.cliq.gpdb
testfiles/1onc_cliqs/17_1onc_native_r1_r1_r1_r1_r14_r2_r2_r2.cliq.gpdb
testfiles/1onc_cliqs/18_1onc_native_r2_r1_r1_r1_r1_r1_r11_r14.cliq.gpdb
testfiles/1onc_cliqs/19_1onc_native_r14_r1_r1_r11_r2_r4_r8_r8.cliq.gpdb
testfiles/1onc_cliqs/20_1onc_native_r1_r1_r1_r1_r2_r2_r2_r2.cliq.gpdb
testfiles/1onc_cliqs/21_1onc_native_r2_r1_r1_r1_r1_r2_r8_r9.cliq.gpdb
testfiles/1onc_cliqs/22_1onc_native_r2_r1_r1_r1_r16_r2_r8_r9.cliq.gpdb
testfiles/1onc_cliqs/23_1onc_native_r9_r1_r1_r1_r16_r2_r2_r8.cliq.gpdb
testfiles/1onc_cliqs/24_1onc_native_r1_r1_r1_r2_r2_r2_r2_r8.cliq.gpdb
testfiles/1onc_cliqs/25_1onc_native_r2_r1_r1_r1_r2_r2_r2_r8.cliq.gpdb
testfiles/1onc_cliqs/26_1onc_native_r2_r1_r1_r1_r2_r2_r2_r5.cliq.gpdb
testfiles/1onc_cliqs/27_1onc_native_r2_r1_r2_r2_r2_r5_r8_r8.cliq.gpdb
testfiles/1onc_cliqs/28_1onc_native_r2_r1_r12_r2_r2_r2_r5_r8.cliq.gpdb
testfiles/1onc_cliqs/29_1onc_native_r5_r12_r2_r2_r2_r2_r8_r8.cliq.gpdb
testfiles/1onc_cliqs/30_1onc_native_r1_r1_r1_r1_r2_r2_r4_r9.cliq.gpdb
testfiles/1onc_cliqs/31_1onc_native_r2_r1_r1_r1_r2_r2_r2_r4.cliq.gpdb
testfiles/1onc_cliqs/32_1onc_native_r2_r1_r1_r2_r2_r2_r5_r8.cliq.gpdb
testfiles/1onc_cliqs/33_1onc_native_r2_r1_r1_r2_r2_r2_r5_r8.cliq.gpdb
testfiles/1onc_cliqs/34_1onc_native_r2_r12_r2_r2_r2_r5_r8_r8.cliq.gpdb
testfiles/1onc_cliqs/35_1onc_native_r5_r12_r2_r2_r2_r2_r8_r8.cliq.gpdb
testfiles/1onc_cliqs/36_1onc_native_r1_r1_r1_r1_r12_r2_r2_r4.cliq.gpdb
testfiles/1onc_cliqs/37_1onc_native_r4_r1_r1_r1_r14_r2_r2_r9.cliq.gpdb
testfiles/1onc_cliqs/38_1onc_native_r1_r1_r1_r12_r12_r2_r8_r8.cliq.gpdb
testfiles/1onc_cliqs/39_1onc_native_r12_r1_r1_r1_r2_r2_r8_r8.cliq.gpdb
testfiles/1onc_cliqs/40_1onc_native_r2_r1_r1_r12_r8_r8_r8_r8.cliq.gpdb
testfiles/1onc_cliqs/41_1onc_native_r8_r1_r1_r1_r1_r12_r2_r8.cliq.gpdb
testfiles/1onc_cliqs/42_1onc_native_r8_r12_r12_r2_r2_r8_r8_r8.cliq.gpdb
testfiles/1onc_cliqs/43_1onc_native_r1_r1_r1_r12_r2_r7_r8_r9.cliq.gpdb
testfiles/1onc_cliqs/44_1onc_native_r12_r1_r1_r1_r2_r7_r8_r8.cliq.gpdb
testfiles/1onc_cliqs/45_1onc_native_r8_r1_r1_r12_r2_r2_r7_r8.cliq.gpdb
testfiles/1onc_cliqs/46_1onc_native_r7_r1_r1_r1_r12_r8_r8_r8.cliq.gpdb
testfiles/1onc_cliqs/47_1onc_native_r1_r1_r1_r12_r2_r7_r8_r9.cliq.gpdb
testfiles/1onc_cliqs/48_1onc_native_r2_r1_r1_r12_r12_r7_r8_r9.cliq.gpdb
testfiles/1onc_cliqs/49_1onc_native_r9_r1_r1_r1_r12_r2_r7_r8.cliq.gpdb
testfiles/1onc_cliqs/50_1onc_native_r1_r1_r1_r12_r2_r7_r7_r8.cliq.gpdb
testfiles/1onc_cliqs/51_1onc_native_r12_r1_r1_r1_r1_r7_r7_r8.cliq.gpdb
testfiles/1onc_cliqs/52_1onc_native_r8_r1_r1_r1_r12_r2_r7_r7.cliq.gpdb
testfiles/1onc_cliqs/53_1onc_native_r7_r1_r1_r1_r1_r12_r2_r8.cliq.gpdb
testfiles/1onc_cliqs/54_1onc_native_r1_r1_r1_r2_r2_r2_r6_r7.cliq.gpdb
testfiles/1onc_cliqs/55_1onc_native_r2_r1_r1_r2_r2_r3_r6_r7.cliq.gpdb
testfiles/1onc_cliqs/56_1onc_native_r2_r1_r1_r14_r2_r2_r3_r7.cliq.gpdb
testfiles/1onc_cliqs/57_1onc_native_r3_r2_r2_r2_r2_r2_r2_r7.cliq.gpdb
testfiles/1onc_cliqs/58_1onc_native_r1_r1_r1_r12_r2_r7_r8_r8.cliq.gpdb
testfiles/1onc_cliqs/59_1onc_native_r2_r1_r1_r2_r5_r6_r7_r8.cliq.gpdb
testfiles/1onc_cliqs/60_1onc_native_r6_r1_r1_r2_r2_r2_r2_r5.cliq.gpdb
testfiles/1onc_cliqs/61_1onc_native_r1_r1_r1_r10_r12_r2_r8_r8.cliq.gpdb
testfiles/1onc_cliqs/62_1onc_native_r12_r1_r1_r10_r10_r8_r8_r8.cliq.gpdb
testfiles/1onc_cliqs/63_1onc_native_r8_r1_r1_r10_r12_r14_r8_r8.cliq.gpdb
testfiles/1onc_cliqs/64_1onc_native_r8_r1_r12_r12_r2_r7_r8_r8.cliq.gpdb
testfiles/1onc_cliqs/65_1onc_native_r1_r1_r1_r2_r2_r6_r8_r8.cliq.gpdb
testfiles/1onc_cliqs/66_1onc_native_r2_r1_r1_r1_r2_r6_r8_r9.cliq.gpdb
testfiles/1onc_cliqs/67_1onc_native_r6_r1_r1_r1_r1_r2_r2_r9.cliq.gpdb
testfiles/1onc_cliqs/68_1onc_native_r1_r1_r1_r10_r2_r2_r2_r8.cliq.gpdb
testfiles/1onc_cliqs/69_1onc_native_r2_r1_r1_r10_r10_r2_r2_r2.cliq.gpdb
testfiles/1onc_cliqs/70_1onc_native_r10_r1_r10_r2_r2_r2_r2_r8.cliq.gpdb
testfiles/1onc_cliqs/71_1onc_native_r1_r1_r1_r1_r2_r2_r6_r7.cliq.gpdb
testfiles/1onc_cliqs/72_1onc_native_r2_r1_r1_r1_r2_r2_r2_r6.cliq.gpdb
testfiles/1onc_cliqs/73_1onc_native_r6_r1_r1_r1_r2_r2_r2_r2.cliq.gpdb
testfiles/1onc_cliqs/74_1onc_native_r1_r1_r1_r12_r2_r7_r8_r9.cliq.gpdb
testfiles/1onc_cliqs/75_1onc_native_r2_r1_r1_r1_r12_r2_r6_r9.cliq.gpdb
testfiles/1onc_cliqs/76_1onc_native_r9_r1_r1_r12_r2_r2_r6_r7.cliq.gpdb
testfiles/1onc_cliqs/77_1onc_native_r1_r1_r1_r12_r2_r2_r7_r8.cliq.gpdb
testfiles/1onc_cliqs/78_1onc_native_r12_r1_r1_r1_r2_r8_r8_r8.cliq.gpdb
testfiles/1onc_cliqs/79_1onc_native_r2_r1_r1_r12_r14_r7_r8_r8.cliq.gpdb
testfiles/1onc_cliqs/80_1onc_native_r8_r1_r1_r12_r2_r2_r8_r8.cliq.gpdb
testfiles/1onc_cliqs/81_1onc_native_r8_r1_r12_r14_r14_r2_r8_r8.cliq.gpdb
testfiles/1onc_cliqs/82_1onc_native_r1_r1_r1_r2_r2_r2_r2_r7.cliq.gpdb
testfiles/1onc_cliqs/83_1onc_native_r2_r1_r1_r1_r13_r14_r2_r7.cliq.gpdb
testfiles/1onc_cliqs/84_1onc_native_r2_r1_r1_r13_r14_r2_r2_r8.cliq.gpdb
testfiles/1onc_cliqs/85_1onc_native_r13_r2_r2_r2_r2_r2_r2_r7.cliq.gpdb
testfiles/1onc_cliqs/86_1onc_native_r1_r1_r1_r12_r2_r7_r7_r8.cliq.gpdb
testfiles/1onc_cliqs/87_1onc_native_r2_r1_r1_r1_r1_r10_r10_r7.cliq.gpdb
testfiles/1onc_cliqs/88_1onc_native_r7_r1_r1_r1_r1_r1_r10_r2.cliq.gpdb
testfiles/1onc_cliqs/89_1onc_native_r1_r1_r1_r12_r2_r7_r8_r9.cliq.gpdb
testfiles/1onc_cliqs/90_1onc_native_r12_r1_r1_r1_r1_r2_r7_r8.cliq.gpdb
testfiles/1onc_cliqs/91_1onc_native_r8_r1_r1_r1_r1_r12_r7_r7.cliq.gpdb
testfiles/1onc_cliqs/92_1onc_native_r7_r1_r1_r1_r1_r12_r2_r8.cliq.gpdb
testfiles/1onc_cliqs/93_1onc_native_r1_r1_r1_r1_r2_r2_r7_r9.cliq.gpdb
testfiles/1onc_cliqs/94_1onc_native_r2_r1_r1_r1_r12_r2_r7_r9.cliq.gpdb
testfiles/1onc_cliqs/95_1onc_native_r9_r1_r1_r1_r12_r2_r7_r8.cliq.gpdb
testfiles/1onc_cliqs/96_1onc_native_r1_r1_r1_r12_r14_r2_r2_r8.cliq.gpdb
testfiles/1onc_cliqs/97_1onc_native_r2_r1_r1_r12_r14_r7_r8_r8.cliq.gpdb
testfiles/1onc_cliqs/98_1onc_native_r12_r1_r14_r2_r2_r2_r8_r8.cliq.gpdb
testfiles/1onc_cliqs/99_1onc_native_r8_r1_r12_r2_r2_r2_r2_r8.cliq.gpdb
testfiles/1onc_cliqs/100_1onc_native_r8_r1_r12_r14_r2_r2_r2_r8.cliq.gpdb
testfiles/1onc_cliqs/101_1onc_native_r1_r1_r1_r1_r2_r2_r2_r4.cliq.gpdb
testfiles/1onc_cliqs/102_1onc_native_r2_r1_r1_r1_r13_r14_r2_r2.cliq.gpdb
testfiles/1onc_cliqs/103_1onc_native_r14_r1_r12_r13_r2_r2_r8_r9.cliq.gpdb
testfiles/1onc_cliqs/104_1onc_native_r1_r1_r1_r1_r10_r2_r2_r4.cliq.gpdb
testfiles/1onc_cliqs/105_1onc_native_r4_r1_r1_r1_r1_r1_r2_r2.cliq.gpdb
testfiles/1onc_cliqs/106_1onc_native_r1_r1_r1_r10_r2_r2_r2_r7.cliq.gpdb
testfiles/1onc_cliqs/107_1onc_native_r2_r1_r1_r1_r10_r10_r2_r7.cliq.gpdb
testfiles/1onc_cliqs/108_1onc_native_r10_r1_r1_r10_r2_r2_r2_r7.cliq.gpdb
testfiles/1onc_cliqs/109_1onc_native_r1_r1_r1_r2_r2_r2_r2_r7.cliq.gpdb
testfiles/1onc_cliqs/110_1onc_native_r2_r1_r1_r1_r2_r2_r2_r5.cliq.gpdb
testfiles/1onc_cliqs/111_1onc_native_r2_r1_r1_r1_r2_r2_r2_r5.cliq.gpdb
testfiles/1onc_cliqs/112_1onc_native_r2_r1_r1_r2_r2_r2_r2_r5.cliq.gpdb
testfiles/1onc_cliqs/113_1onc_native_r2_r1_r1_r2_r2_r2_r2_r5.cliq.gpdb
testfiles/1onc_cliqs/114_1onc_native_r5_r1_r2_r2_r2_r2_r2_r9.cliq.gpdb
testfiles/1onc_cliqs/115_1onc_native_r1_r1_r1_r12_r2_r2_r6_r8.cliq.gpdb
testfiles/1onc_cliqs/116_1onc_native_r2_r1_r1_r12_r2_r2_r6_r8.cliq.gpdb
testfiles/1onc_cliqs/117_1onc_native_r6_r1_r1_r12_r2_r2_r8_r8.cliq.gpdb
testfiles/1onc_cliqs/118_1onc_native_r1_r1_r1_r2_r2_r2_r2_r5.cliq.gpdb
testfiles/1onc_cliqs/119_1onc_native_r2_r1_r1_r2_r2_r2_r2_r5.cliq.gpdb
testfiles/1onc_cliqs/120_1onc_native_r2_r1_r1_r2_r2_r2_r5_r9.cliq.gpdb
testfiles/1onc_cliqs/121_1onc_native_r2_r1_r2_r2_r2_r5_r7_r9.cliq.gpdb
testfiles/1onc_cliqs/122_1onc_native_r2_r2_r2_r2_r5_r6_r7_r9.cliq.gpdb
testfiles/1onc_cliqs/123_1onc_native_r5_r2_r2_r2_r2_r2_r6_r9.cliq.gpdb
testfiles/1onc_cliqs/124_1onc_native_r1_r1_r1_r12_r2_r2_r7_r9.cliq.gpdb
testfiles/1onc_cliqs/125_1onc_native_r2_r1_r1_r1_r13_r14_r5_r9.cliq.gpdb
testfiles/1onc_cliqs/126_1onc_native_r9_r1_r1_r1_r14_r14_r2_r4.cliq.gpdb
testfiles/1onc_cliqs/127_1onc_native_r1_r1_r1_r12_r2_r7_r8_r9.cliq.gpdb
testfiles/1onc_cliqs/128_1onc_native_r12_r1_r1_r14_r6_r7_r8_r8.cliq.gpdb
testfiles/1onc_cliqs/129_1onc_native_r8_r1_r12_r2_r6_r7_r8_r8.cliq.gpdb
testfiles/1onc_cliqs/130_1onc_native_r7_r1_r1_r12_r2_r6_r8_r8.cliq.gpdb
testfiles/1onc_cliqs/131_1onc_native_r1_r1_r1_r12_r2_r2_r8_r8.cliq.gpdb
testfiles/1onc_cliqs/132_1onc_native_r2_r1_r1_r12_r14_r2_r8_r8.cliq.gpdb
testfiles/1onc_cliqs/133_1onc_native_r14_r1_r12_r2_r2_r8_r8_r9.cliq.gpdb
testfiles/1onc_cliqs/134_1onc_native_r1_r1_r1_r12_r2_r2_r8_r8.cliq.gpdb
testfiles/1onc_cliqs/135_1onc_native_r12_r1_r1_r2_r2_r8_r8_r8.cliq.gpdb
testfiles/1onc_cliqs/136_1onc_native_r2_r1_r1_r12_r14_r8_r8_r8.cliq.gpdb
testfiles/1onc_cliqs/137_1onc_native_r8_r1_r12_r2_r2_r2_r8_r8.cliq.gpdb
testfiles/1onc_cliqs/138_1onc_native_r8_r1_r12_r14_r2_r2_r8_r8.cliq.gpdb
testfiles/1onc_cliqs/139_1onc_native_r1_r1_r1_r14_r2_r2_r7_r8.cliq.gpdb
testfiles/1onc_cliqs/140_1onc_native_r2_r1_r1_r1_r14_r2_r2_r8.cliq.gpdb
testfiles/1onc_cliqs/141_1onc_native_r14_r1_r1_r1_r2_r2_r2_r7.cliq.gpdb
testfiles/1onc_cliqs/142_1onc_native_r7_r1_r1_r1_r14_r2_r2_r2.cliq.gpdb
testfiles/1onc_cliqs/143_1onc_native_r1_r1_r1_r2_r2_r2_r7_r8.cliq.gpdb
testfiles/1onc_cliqs/144_1onc_native_r2_r1_r1_r1_r1_r7_r8_r8.cliq.gpdb
testfiles/1onc_cliqs/145_1onc_native_r7_r1_r1_r1_r11_r2_r2_r8.cliq.gpdb
testfiles/1onc_cliqs/146_1onc_native_r1_r1_r11_r2_r2_r2_r6_r7.cliq.gpdb
testfiles/1onc_cliqs/147_1onc_native_r2_r1_r1_r11_r2_r2_r3_r6.cliq.gpdb
testfiles/1onc_cliqs/148_1onc_native_r2_r1_r1_r2_r2_r3_r6_r7.cliq.gpdb
testfiles/1onc_cliqs/149_1onc_native_r3_r1_r11_r2_r2_r2_r2_r6.cliq.gpdb
testfiles/1onc_cliqs/150_1onc_native_r11_r1_r1_r2_r2_r2_r6_r8.cliq.gpdb
testfiles/1onc_cliqs/151_1onc_native_r1_r1_r11_r11_r2_r2_r2_r8.cliq.gpdb
testfiles/1onc_cliqs/152_1onc_native_r2_r1_r1_r11_r11_r2_r2_r6.cliq.gpdb
testfiles/1onc_cliqs/153_1onc_native_r2_r1_r1_r11_r2_r2_r3_r6.cliq.gpdb
testfiles/1onc_cliqs/154_1onc_native_r6_r1_r1_r11_r2_r2_r2_r3.cliq.gpdb
testfiles/1onc_cliqs/155_1onc_native_r11_r1_r1_r1_r12_r2_r7_r8.cliq.gpdb
testfiles/1onc_cliqs/156_1onc_native_r1_r1_r12_r2_r2_r8_r8_r8.cliq.gpdb
testfiles/1onc_cliqs/157_1onc_native_r12_r1_r11_r7_r8_r8_r8_r8.cliq.gpdb
testfiles/1onc_cliqs/158_1onc_native_r8_r1_r12_r2_r8_r8_r8_r8.cliq.gpdb
testfiles/1onc_cliqs/159_1onc_native_r8_r1_r11_r12_r2_r7_r8_r8.cliq.gpdb
testfiles/1onc_cliqs/160_1onc_native_r1_r1_r1_r1_r2_r2_r2_r8.cliq.gpdb
testfiles/1onc_cliqs/161_1onc_native_r2_r1_r1_r1_r16_r2_r2_r2.cliq.gpdb
testfiles/1onc_cliqs/162_1onc_native_r2_r1_r16_r2_r2_r2_r5_r8.cliq.gpdb
testfiles/1onc_cliqs/163_1onc_native_r2_r1_r16_r2_r2_r2_r5_r8.cliq.gpdb
testfiles/1onc_cliqs/164_1onc_native_r2_r1_r16_r2_r2_r2_r5_r8.cliq.gpdb
testfiles/1onc_cliqs/165_1onc_native_r5_r1_r16_r2_r2_r2_r2_r8.cliq.gpdb
testfiles/1onc_cliqs/166_1onc_native_r1_r1_r1_r1_r12_r2_r2_r8.cliq.gpdb
testfiles/1onc_cliqs/167_1onc_native_r8_r1_r1_r1_r1_r1_r11_r2.cliq.gpdb
testfiles/1onc_cliqs/168_1onc_native_r1_r1_r1_r10_r12_r2_r2_r8.cliq.gpdb
testfiles/1onc_cliqs/169_1onc_native_r12_r1_r1_r1_r10_r2_r8_r8.cliq.gpdb
testfiles/1onc_cliqs/170_1onc_native_r2_r1_r1_r1_r12_r8_r8_r8.cliq.gpdb
testfiles/1onc_cliqs/171_1onc_native_r8_r1_r12_r2_r8_r8_r8_r8.cliq.gpdb
testfiles/1onc_cliqs/172_1onc_native_r8_r1_r12_r12_r2_r8_r8_r8.cliq.gpdb
testfiles/1onc_cliqs/173_1onc_native_r1_r1_r1_r1_r10_r12_r2_r2.cliq.gpdb
testfiles/1onc_cliqs/174_1onc_native_r2_r1_r1_r1_r1_r10_r10_r2.cliq.gpdb
testfiles/1onc_cliqs/175_1onc_native_r10_r1_r1_r1_r10_r2_r2_r8.cliq.gpdb
testfiles/1onc_cliqs/176_1onc_native_r1_r1_r1_r2_r2_r2_r2_r2.cliq.gpdb
testfiles/1onc_cliqs/177_1onc_native_r2_r1_r1_r1_r2_r2_r2_r5.cliq.gpdb
testfiles/1onc_cliqs/178_1onc_native_r2_r1_r1_r2_r2_r2_r5_r9.cliq.gpdb
testfiles/1onc_cliqs/179_1onc_native_r2_r1_r1_r2_r2_r2_r5_r8.cliq.gpdb
testfiles/1onc_cliqs/180_1onc_native_r2_r1_r2_r2_r2_r5_r8_r9.cliq.gpdb
testfiles/1onc_cliqs/181_1onc_native_r5_r1_r2_r2_r2_r2_r2_r9.cliq.gpdb
testfiles/1onc_cliqs/182_1onc_native_r1_r1_r1_r12_r2_r2_r2_r8.cliq.gpdb
testfiles/1onc_cliqs/183_1onc_native_r1_r1_r1_r12_r12_r2_r2_r8.cliq.gpdb
testfiles/1onc_cliqs/184_1onc_native_r12_r1_r1_r1_r2_r2_r8_r8.cliq.gpdb
testfiles/1onc_cliqs/185_1onc_native_r2_r1_r1_r1_r1_r12_r8_r8.cliq.gpdb
testfiles/1onc_cliqs/186_1onc_native_r8_r1_r12_r2_r2_r2_r2_r8.cliq.gpdb
testfiles/1onc_cliqs/187_1onc_native_r8_r10_r12_r2_r2_r5_r8_r8.cliq.gpdb
testfiles/1onc_cliqs/188_1onc_native_r1_r1_r1_r12_r2_r8_r8_r8.cliq.gpdb
testfiles/1onc_cliqs/189_1onc_native_r12_r1_r1_r1_r2_r8_r8_r8.cliq.gpdb
testfiles/1onc_cliqs/190_1onc_native_r2_r1_r1_r1_r12_r2_r8_r8.cliq.gpdb
testfiles/1onc_cliqs/191_1onc_native_r8_r1_r1_r12_r2_r2_r8_r9.cliq.gpdb
testfiles/1onc_cliqs/192_1onc_native_r8_r1_r1_r12_r2_r2_r8_r9.cliq.gpdb
testfiles/1onc_cliqs/193_1onc_native_r1_r1_r1_r2_r2_r7_r8_r8.cliq.gpdb
testfiles/1onc_cliqs/194_1onc_native_r8_r1_r1_r1_r12_r2_r7_r8.cliq.gpdb
testfiles/1onc_cliqs/195_1onc_native_r1_r1_r1_r1_r2_r2_r2_r7.cliq.gpdb
testfiles/1onc_cliqs/196_1onc_native_r2_r1_r1_r2_r2_r6_r7_r8.cliq.gpdb
testfiles/1onc_cliqs/197_1onc_native_r7_r1_r1_r2_r2_r2_r6_r8.cliq.gpdb
testfiles/1onc_cliqs/198_1onc_native_r1_r1_r1_r2_r2_r2_r2_r8.cliq.gpdb
testfiles/1onc_cliqs/199_1onc_native_r2_r1_r1_r2_r2_r2_r8_r8.cliq.gpdb
testfiles/1onc_cliqs/200_1onc_native_r2_r1_r1_r1_r2_r2_r2_r5.cliq.gpdb
testfiles/1onc_cliqs/201_1onc_native_r2_r1_r2_r2_r2_r5_r8_r8.cliq.gpdb
testfiles/1onc_cliqs/202_1onc_native_r2_r1_r2_r2_r2_r5_r8_r8.cliq.gpdb
testfiles/1onc_cliqs/203_1onc_native_r5_r2_r2_r2_r2_r2_r8_r8.cliq.gpdb
testfiles/1onc_cliqs/204_1onc_native_r1_r1_r1_r12_r2_r2_r8_r9.cliq.gpdb
testfiles/1onc_cliqs/205_1onc_native_r2_r1_r1_r1_r10_r7_r8_r9.cliq.gpdb
testfiles/1onc_cliqs/206_1onc_native_r9_r1_r1_r10_r12_r2_r7_r8.cliq.gpdb
testfiles/1onc_cliqs/207_1onc_native_r1_r1_r1_r10_r12_r2_r8_r8.cliq.gpdb
testfiles/1onc_cliqs/208_1onc_native_r12_r1_r1_r10_r8_r8_r8_r8.cliq.gpdb
testfiles/1onc_cliqs/209_1onc_native_r8_r1_r1_r1_r10_r12_r8_r8.cliq.gpdb
testfiles/1onc_cliqs/210_1onc_native_r8_r1_r1_r10_r12_r2_r8_r8.cliq.gpdb
testfiles/1onc_cliqs/211_1onc_native_r1_r1_r1_r12_r12_r2_r8_r8.cliq.gpdb
testfiles/1onc_cliqs/212_1onc_native_r2_r1_r1_r1_r12_r2_r8_r8.cliq.gpdb
testfiles/1onc_cliqs/213_1onc_native_r12_r1_r1_r1_r2_r2_r8_r8.cliq.gpdb
testfiles/1onc_cliqs/214_1onc_native_r8_r1_r1_r12_r2_r2_r6_r8.cliq.gpdb
testfiles/1onc_cliqs/215_1onc_native_r8_r1_r12_r2_r2_r2_r6_r8.cliq.gpdb
testfiles/1onc_cliqs/216_1onc_native_r1_r1_r1_r12_r12_r7_r8_r8.cliq.gpdb
testfiles/1onc_cliqs/217_1onc_native_r12_r1_r1_r1_r2_r7_r8_r8.cliq.gpdb
testfiles/1onc_cliqs/218_1onc_native_r8_r1_r12_r14_r2_r7_r8_r8.cliq.gpdb
testfiles/1onc_cliqs/219_1onc_native_r7_r1_r1_r1_r12_r2_r2_r8.cliq.gpdb
testfiles/1onc_cliqs/220_1onc_native_r1_r1_r1_r12_r2_r7_r7_r8.cliq.gpdb
testfiles/1onc_cliqs/221_1onc_native_r12_r1_r1_r1_r2_r7_r7_r8.cliq.gpdb
testfiles/1onc_cliqs/222_1onc_native_r8_r1_r1_r1_r12_r12_r7_r7.cliq.gpdb
testfiles/1onc_cliqs/223_1onc_native_r7_r1_r1_r1_r12_r2_r7_r8.cliq.gpdb
testfiles/1onc_cliqs/224_1onc_native_r1_r1_r1_r2_r2_r2_r7_r7.cliq.gpdb
testfiles/1onc_cliqs/225_1onc_native_r2_r1_r1_r1_r12_r14_r7_r7.cliq.gpdb
testfiles/1onc_cliqs/226_1onc_native_r7_r1_r1_r1_r1_r12_r2_r7.cliq.gpdb
testfiles/1onc_cliqs/227_1onc_native_r1_r1_r1_r14_r2_r2_r2_r2.cliq.gpdb
testfiles/1onc_cliqs/228_1onc_native_r2_r1_r1_r1_r1_r2_r2_r6.cliq.gpdb
testfiles/1onc_cliqs/229_1onc_native_r2_r1_r1_r1_r2_r2_r2_r6.cliq.gpdb
testfiles/1onc_cliqs/230_1onc_native_r6_r1_r1_r1_r2_r2_r2_r2.cliq.gpdb
testfiles/1onc_cliqs/231_1onc_native_r1_r1_r1_r12_r12_r2_r2_r8.cliq.gpdb
testfiles/1onc_cliqs/232_1onc_native_r2_r1_r1_r1_r12_r14_r8_r8.cliq.gpdb
testfiles/1onc_cliqs/233_1onc_native_r14_r1_r12_r2_r8_r8_r8_r8.cliq.gpdb
testfiles/1onc_cliqs/234_1onc_native_r1_r1_r1_r12_r2_r2_r2_r8.cliq.gpdb
testfiles/1onc_cliqs/235_1onc_native_r2_r1_r1_r1_r14_r2_r2_r3.cliq.gpdb
testfiles/1onc_cliqs/236_1onc_native_r14_r1_r1_r2_r2_r3_r7_r8.cliq.gpdb
testfiles/1onc_cliqs/237_1onc_native_r7_r12_r14_r14_r2_r2_r3_r8.cliq.gpdb
testfiles/1onc_cliqs/238_1onc_native_r1_r1_r1_r12_r2_r2_r7_r8.cliq.gpdb
testfiles/1onc_cliqs/239_1onc_native_r2_r1_r1_r12_r7_r8_r8_r8.cliq.gpdb
testfiles/1onc_cliqs/240_1onc_native_r12_r1_r1_r1_r2_r7_r8_r8.cliq.gpdb
testfiles/1onc_cliqs/241_1onc_native_r8_r12_r2_r2_r7_r8_r8_r8.cliq.gpdb
testfiles/1onc_cliqs/242_1onc_native_r8_r1_r12_r12_r2_r2_r8_r8.cliq.gpdb
testfiles/1onc_cliqs/243_1onc_native_r1_r1_r1_r2_r2_r6_r7_r8.cliq.gpdb
testfiles/1onc_cliqs/244_1onc_native_r2_r1_r1_r1_r2_r7_r8_r8.cliq.gpdb
testfiles/1onc_cliqs/245_1onc_native_r7_r1_r1_r1_r2_r2_r2_r3.cliq.gpdb
testfiles/1onc_cliqs/246_1onc_native_r1_r1_r1_r10_r2_r2_r6_r8.cliq.gpdb
testfiles/1onc_cliqs/247_1onc_native_r2_r1_r1_r1_r2_r5_r6_r9.cliq.gpdb
testfiles/1onc_cliqs/248_1onc_native_r6_r1_r12_r2_r2_r5_r7_r8.cliq.gpdb
testfiles/1onc_cliqs/249_1onc_native_r1_r1_r1_r10_r2_r2_r2_r9.cliq.gpdb
testfiles/1onc_cliqs/250_1onc_native_r2_r1_r1_r10_r10_r13_r2_r2.cliq.gpdb
testfiles/1onc_cliqs/251_1onc_native_r10_r1_r1_r10_r2_r2_r2_r8.cliq.gpdb
testfiles/1onc_cliqs/252_1onc_native_r1_r1_r1_r12_r2_r2_r8_r9.cliq.gpdb
testfiles/1onc_cliqs/253_1onc_native_r2_r1_r1_r1_r1_r2_r2_r9.cliq.gpdb
testfiles/1onc_cliqs/254_1onc_native_r9_r1_r1_r1_r2_r2_r2_r5.cliq.gpdb
testfiles/1onc_cliqs/255_1onc_native_r1_r1_r1_r12_r12_r8_r8_r8.cliq.gpdb
testfiles/1onc_cliqs/256_1onc_native_r12_r1_r1_r1_r1_r14_r8_r8.cliq.gpdb
testfiles/1onc_cliqs/257_1onc_native_r8_r1_r1_r1_r12_r2_r6_r8.cliq.gpdb
testfiles/1onc_cliqs/258_1onc_native_r8_r1_r1_r1_r1_r12_r14_r8.cliq.gpdb
testfiles/1onc_cliqs/259_1onc_native_r1_r1_r1_r12_r2_r7_r7_r8.cliq.gpdb
testfiles/1onc_cliqs/260_1onc_native_r12_r1_r1_r1_r1_r7_r7_r8.cliq.gpdb
testfiles/1onc_cliqs/261_1onc_native_r8_r1_r1_r1_r1_r12_r2_r7.cliq.gpdb
testfiles/1onc_cliqs/262_1onc_native_r7_r1_r1_r1_r12_r2_r2_r8.cliq.gpdb
testfiles/1onc_cliqs/263_1onc_native_r1_r1_r1_r2_r2_r2_r7_r7.cliq.gpdb
testfiles/1onc_cliqs/264_1onc_native_r2_r1_r1_r12_r2_r2_r7_r7.cliq.gpdb
testfiles/1onc_cliqs/265_1onc_native_r7_r1_r1_r12_r2_r2_r2_r7.cliq.gpdb
testfiles/1onc_cliqs/266_1onc_native_r1_r1_r11_r2_r2_r2_r2_r7.cliq.gpdb
testfiles/1onc_cliqs/267_1onc_native_r2_r1_r1_r2_r2_r2_r3_r7.cliq.gpdb
testfiles/1onc_cliqs/268_1onc_native_r2_r1_r1_r2_r2_r3_r7_r7.cliq.gpdb
testfiles/1onc_cliqs/269_1onc_native_r3_r2_r2_r2_r2_r2_r2_r7.cliq.gpdb
testfiles/1onc_cliqs/270_1onc_native_r11_r1_r1_r1_r2_r2_r2_r8.cliq.gpdb
testfiles/1onc_cliqs/271_1onc_native_r1_r1_r10_r14_r2_r2_r2_r2.cliq.gpdb
testfiles/1onc_cliqs/272_1onc_native_r2_r1_r1_r10_r10_r11_r2_r7.cliq.gpdb
testfiles/1onc_cliqs/273_1onc_native_r10_r1_r1_r10_r2_r2_r2_r7.cliq.gpdb
testfiles/1onc_cliqs/274_1onc_native_r1_r1_r1_r14_r2_r2_r2_r7.cliq.gpdb
testfiles/1onc_cliqs/275_1onc_native_r2_r1_r1_r2_r2_r2_r2_r7.cliq.gpdb
testfiles/1onc_cliqs/276_1onc_native_r2_r1_r1_r2_r2_r2_r2_r5.cliq.gpdb
testfiles/1onc_cliqs/277_1onc_native_r2_r1_r2_r2_r2_r3_r5_r6.cliq.gpdb
testfiles/1onc_cliqs/278_1onc_native_r2_r1_r2_r2_r2_r2_r3_r5.cliq.gpdb
testfiles/1onc_cliqs/279_1onc_native_r5_r1_r2_r2_r2_r2_r2_r6.cliq.gpdb
testfiles/1onc_cliqs/280_1onc_native_r1_r1_r1_r1_r2_r2_r2_r8.cliq.gpdb
testfiles/1onc_cliqs/281_1onc_native_r2_r1_r1_r1_r1_r10_r14_r2.cliq.gpdb
testfiles/1onc_cliqs/282_1onc_native_r14_r1_r1_r12_r2_r2_r2_r7.cliq.gpdb
testfiles/1onc_cliqs/283_1onc_native_r7_r1_r1_r10_r14_r2_r2_r2.cliq.gpdb
testfiles/1onc_cliqs/284_1onc_native_r1_r1_r1_r10_r2_r2_r2_r2.cliq.gpdb
testfiles/1onc_cliqs/285_1onc_native_r2_r1_r1_r2_r2_r2_r5_r8.cliq.gpdb
testfiles/1onc_cliqs/286_1onc_native_r2_r1_r1_r2_r2_r2_r5_r8.cliq.gpdb
testfiles/1onc_cliqs/287_1onc_native_r2_r1_r1_r2_r2_r2_r5_r8.cliq.gpdb
testfiles/1onc_cliqs/288_1onc_native_r2_r1_r12_r2_r2_r2_r5_r8.cliq.gpdb
testfiles/1onc_cliqs/289_1onc_native_r5_r12_r2_r2_r2_r2_r7_r8.cliq.gpdb
testfiles/1onc_cliqs/290_1onc_native_r1_r1_r1_r12_r2_r2_r8_r8.cliq.gpdb
testfiles/1onc_cliqs/291_1onc_native_r2_r1_r1_r1_r10_r12_r8_r8.cliq.gpdb
testfiles/1onc_cliqs/292_1onc_native_r12_r1_r1_r10_r2_r2_r8_r8.cliq.gpdb
testfiles/1onc_cliqs/293_1onc_native_r8_r1_r1_r10_r12_r2_r2_r8.cliq.gpdb
testfiles/1onc_cliqs/294_1onc_native_r8_r1_r1_r12_r2_r2_r2_r8.cliq.gpdb
testfiles/1onc_cliqs/295_1onc_native_r1_r1_r1_r2_r2_r2_r2_r2.cliq.gpdb
testfiles/1onc_cliqs/296_1onc_native_r2_r1_r1_r2_r2_r2_r2_r5.cliq.gpdb
testfiles/1onc_cliqs/297_1onc_native_r2_r1_r1_r1_r2_r2_r2_r5.cliq.gpdb
testfiles/1onc_cliqs/298_1onc_native_r2_r1_r2_r2_r2_r2_r5_r9.cliq.gpdb
testfiles/1onc_cliqs/299_1onc_native_r2_r1_r2_r2_r2_r2_r5_r7.cliq.gpdb
testfiles/1onc_cliqs/300_1onc_native_r5_r1_r2_r2_r2_r2_r2_r7.cliq.gpdb
testfiles/1onc_cliqs/301_1onc_native_r1_r1_r1_r2_r2_r2_r2_r7.cliq.gpdb
testfiles/1onc_cliqs/302_1onc_native_r2_r1_r1_r2_r2_r2_r3_r5.cliq.gpdb
testfiles/1onc_cliqs/303_1onc_native_r2_r1_r1_r2_r2_r2_r5_r7.cliq.gpdb
testfiles/1onc_cliqs/304_1onc_native_r2_r1_r2_r2_r2_r2_r3_r5.cliq.gpdb
testfiles/1onc_cliqs/305_1onc_native_r2_r2_r2_r2_r2_r5_r6_r8.cliq.gpdb
testfiles/1onc_cliqs/306_1onc_native_r5_r2_r2_r2_r2_r2_r2_r6.cliq.gpdb
testfiles/1onc_cliqs/307_1onc_native_r1_r1_r1_r12_r2_r7_r7_r8.cliq.gpdb
testfiles/1onc_cliqs/308_1onc_native_r2_r1_r1_r1_r2_r2_r5_r7.cliq.gpdb
testfiles/1onc_cliqs/309_1onc_native_r7_r1_r1_r1_r2_r2_r5_r8.cliq.gpdb
testfiles/1onc_cliqs/310_1onc_native_r1_r1_r1_r12_r2_r7_r7_r8.cliq.gpdb
testfiles/1onc_cliqs/311_1onc_native_r12_r1_r1_r1_r2_r2_r7_r8.cliq.gpdb
testfiles/1onc_cliqs/312_1onc_native_r8_r1_r1_r1_r12_r14_r2_r7.cliq.gpdb
testfiles/1onc_cliqs/313_1onc_native_r7_r1_r1_r12_r2_r2_r6_r8.cliq.gpdb
testfiles/1onc_cliqs/314_1onc_native_r1_r1_r1_r2_r2_r2_r2_r9.cliq.gpdb
testfiles/1onc_cliqs/315_1onc_native_r2_r1_r1_r1_r12_r8_r8_r9.cliq.gpdb
testfiles/1onc_cliqs/316_1onc_native_r9_r1_r1_r1_r1_r2_r2_r8.cliq.gpdb
testfiles/1onc_cliqs/317_1onc_native_r1_r1_r1_r2_r2_r2_r7_r8.cliq.gpdb
testfiles/1onc_cliqs/318_1onc_native_r2_r1_r1_r2_r2_r2_r7_r8.cliq.gpdb
testfiles/1onc_cliqs/319_1onc_native_r2_r1_r2_r2_r2_r2_r5_r7.cliq.gpdb
testfiles/1onc_cliqs/320_1onc_native_r2_r1_r12_r2_r2_r2_r5_r8.cliq.gpdb
testfiles/1onc_cliqs/321_1onc_native_r2_r1_r1_r2_r2_r2_r2_r5.cliq.gpdb
testfiles/1onc_cliqs/322_1onc_native_r5_r1_r2_r2_r2_r2_r2_r8.cliq.gpdb
testfiles/1onc_cliqs/323_1onc_native_r1_r1_r1_r14_r2_r2_r7_r8.cliq.gpdb
testfiles/1onc_cliqs/324_1onc_native_r2_r1_r1_r1_r1_r14_r14_r8.cliq.gpdb
testfiles/1onc_cliqs/325_1onc_native_r14_r1_r2_r2_r8_r8_r8_r8.cliq.gpdb
testfiles/1onc_cliqs/326_1onc_native_r1_r1_r1_r10_r12_r12_r2_r8.cliq.gpdb
testfiles/1onc_cliqs/327_1onc_native_r2_r1_r1_r1_r10_r12_r8_r8.cliq.gpdb
testfiles/1onc_cliqs/328_1onc_native_r10_r1_r1_r12_r2_r2_r8_r8.cliq.gpdb
testfiles/1onc_cliqs/329_1onc_native_r1_r1_r1_r12_r12_r7_r8_r8.cliq.gpdb
testfiles/1onc_cliqs/330_1onc_native_r12_r1_r1_r1_r1_r10_r8_r8.cliq.gpdb
testfiles/1onc_cliqs/331_1onc_native_r8_r1_r1_r1_r12_r14_r14_r8.cliq.gpdb
testfiles/1onc_cliqs/332_1onc_native_r8_r1_r1_r10_r10_r12_r8_r8.cliq.gpdb
testfiles/1onc_cliqs/333_1onc_native_r1_r1_r1_r10_r12_r2_r7_r8.cliq.gpdb
testfiles/1onc_cliqs/334_1onc_native_r12_r1_r1_r1_r7_r8_r8_r9.cliq.gpdb
testfiles/1onc_cliqs/335_1onc_native_r8_r1_r1_r1_r12_r2_r7_r8.cliq.gpdb
testfiles/1onc_cliqs/336_1onc_native_r7_r1_r1_r1_r12_r8_r8_r9.cliq.gpdb
testfiles/1onc_cliqs/337_1onc_native_r1_r1_r1_r10_r2_r2_r8_r8.cliq.gpdb
testfiles/1onc_cliqs/338_1onc_native_r2_r1_r1_r10_r10_r12_r2_r8.cliq.gpdb
testfiles/1onc_cliqs/339_1onc_native_r10_r1_r10_r12_r2_r2_r8_r8.cliq.gpdb
testfiles/1onc_cliqs/340_1onc_native_r1_r1_r1_r1_r1_r2_r2_r2.cliq.gpdb
testfiles/1onc_cliqs/341_1onc_native_r2_r1_r1_r2_r6_r7_r8_r8.cliq.gpdb
testfiles/1onc_cliqs/342_1onc_native_r2_r1_r1_r2_r2_r2_r6_r7.cliq.gpdb
testfiles/1onc_cliqs/343_1onc_native_r6_r1_r2_r2_r2_r7_r8_r8.cliq.gpdb
testfiles/1onc_cliqs/344_1onc_native_r1_r1_r1_r1_r2_r2_r2_r9.cliq.gpdb
testfiles/1onc_cliqs/345_1onc_native_r2_r1_r1_r2_r2_r2_r8_r9.cliq.gpdb
testfiles/1onc_cliqs/346_1onc_native_r9_r1_r1_r2_r2_r2_r8_r8.cliq.gpdb
testfiles/1onc_cliqs/347_1onc_native_r1_r1_r1_r1_r2_r2_r2_r8.cliq.gpdb
testfiles/1onc_cliqs/348_1onc_native_r2_r1_r1_r1_r1_r2_r2_r9.cliq.gpdb
testfiles/1onc_cliqs/349_1onc_native_r2_r1_r1_r1_r1_r2_r8_r9.cliq.gpdb
testfiles/1onc_cliqs/350_1onc_native_r9_r1_r1_r1_r2_r2_r2_r8.cliq.gpdb
testfiles/1onc_cliqs/351_1onc_native_r1_r1_r1_r10_r11_r2_r8_r8.cliq.gpdb
testfiles/1onc_cliqs/352_1onc_native_r8_r1_r1_r11_r2_r2_r2_r2.cliq.gpdb
testfiles/1onc_cliqs/353_1onc_native_r11_r1_r1_r10_r14_r2_r8_r8.cliq.gpdb
testfiles/1onc_cliqs/354_1onc_native_r1_r1_r12_r2_r4_r5_r8_r8.cliq.gpdb
testfiles/1onc_cliqs/355_1onc_native_r12_r1_r1_r11_r2_r5_r8_r8.cliq.gpdb
testfiles/1onc_cliqs/356_1onc_native_r8_r1_r1_r1_r12_r2_r5_r8.cliq.gpdb
testfiles/1onc_cliqs/357_1onc_native_r8_r1_r1_r12_r12_r2_r8_r8.cliq.gpdb
testfiles/1onc_cliqs/358_1onc_native_r1_r1_r1_r12_r2_r4_r7_r8.cliq.gpdb
testfiles/1onc_cliqs/359_1onc_native_r4_r1_r1_r12_r12_r7_r8_r8.cliq.gpdb
testfiles/1onc_cliqs/360_1onc_native_r1_r1_r1_r12_r14_r2_r8_r8.cliq.gpdb
testfiles/1onc_cliqs/361_1onc_native_r2_r1_r1_r1_r14_r14_r4_r8.cliq.gpdb
testfiles/1onc_cliqs/362_1onc_native_r14_r1_r1_r12_r2_r2_r7_r8.cliq.gpdb
testfiles/1onc_cliqs/363_1onc_native_r1_r1_r1_r12_r14_r2_r8_r8.cliq.gpdb
testfiles/1onc_cliqs/364_1onc_native_r12_r1_r1_r1_r10_r2_r8_r8.cliq.gpdb
testfiles/1onc_cliqs/365_1onc_native_r8_r1_r1_r10_r12_r2_r8_r9.cliq.gpdb
testfiles/1onc_cliqs/366_1onc_native_r8_r1_r1_r10_r12_r7_r8_r9.cliq.gpdb
testfiles/1onc_cliqs/367_1onc_native_r1_r1_r1_r12_r14_r2_r2_r8.cliq.gpdb
testfiles/1onc_cliqs/368_1onc_native_r1_r1_r1_r12_r2_r6_r8_r8.cliq.gpdb
testfiles/1onc_cliqs/369_1onc_native_r12_r1_r1_r2_r2_r8_r8_r8.cliq.gpdb
testfiles/1onc_cliqs/370_1onc_native_r8_r1_r1_r12_r2_r8_r8_r9.cliq.gpdb
testfiles/1onc_cliqs/371_1onc_native_r8_r1_r1_r12_r7_r8_r8_r8.cliq.gpdb
testfiles/1onc_cliqs/372_1onc_native_r6_r1_r1_r12_r2_r8_r8_r9.cliq.gpdb
